,0,1,2,3,4,5,6,7,8,9,10,11,12,13,14,15,16,17,18,19,20,21,22,23,24,25
0,3.92050004,3.92050004,3.92050004,3.92050004,3.92050004,3.92050004,5.7539958352,7.5874916304,9.4209874256,11.2544832208,13.087979016,12.1712311184,11.254483220800001,10.3377353232,9.4209874256,8.504239528,7.587491630400001,6.6707437328,5.7539958352000005,4.837247937600001,3.92050004,3.92050004,3.92050004,3.92050004,3.92050004,3.92050004
1,3.7550001139999996,3.7550001139999996,3.7550001139999996,3.7550001139999996,3.7550001139999996,3.7550001139999996,5.8891147539999995,8.023229394000001,10.157344034000001,12.291458674000001,14.425573314000001,13.358515994000001,12.291458674000001,11.224401354000001,10.157344034000001,9.090286714000001,8.023229394,6.9561720739999995,5.8891147539999995,4.8220574339999995,3.7550001139999996,3.7550001139999996,3.7550001139999996,3.7550001139999996,3.7550001139999996,3.7550001139999996
2,7.926286869,7.926286869,7.926286869,7.926286869,7.926286869,7.926286869,9.3945874584,10.8628880478,12.3311886372,13.7994892266,15.267789816,14.5336395213,13.7994892266,13.065338931900001,12.3311886372,11.5970383425,10.8628880478,10.128737753100001,9.3945874584,8.6604371637,7.926286869,7.926286869,7.926286869,7.926286869,7.926286869,7.926286869
3,1.0484148009999998,1.0484148009999998,1.0484148009999998,1.0484148009999998,1.0484148009999998,1.0484148009999998,1.4875548023999998,1.9266948037999998,2.3658348052,2.8049748065999998,3.244114808,3.0245448073,2.8049748065999998,2.5854048058999997,2.3658348052,2.1462648045,1.9266948037999998,1.7071248031,1.4875548023999998,1.2679848016999997,1.0484148009999998,1.0484148009999998,1.0484148009999998,1.0484148009999998,1.0484148009999998,1.0484148009999998
4,2.592246636,2.592246636,2.592246636,2.592246636,2.592246636,2.592246636,2.78618624316,2.98012585032,3.1740654574800002,3.36800506464,3.5619446718,3.46497486822,3.36800506464,3.27103526106,3.1740654574800002,3.0770956539,2.9801258503200003,2.88315604674,2.78618624316,2.68921643958,2.592246636,2.592246636,2.592246636,2.592246636,2.592246636,2.592246636
5,0.170399995,0.170399995,0.170399995,0.170399995,0.170399995,0.170399995,0.19437096784,0.21834194068,0.24231291352,0.26628388636,0.2902548592,0.27826937277999997,0.26628388636,0.25429839994,0.24231291352,0.23032742709999998,0.21834194067999999,0.20635645426,0.19437096784,0.18238548142,0.170399995,0.170399995,0.170399995,0.170399995,0.170399995,0.170399995
6,0.174803333,0.174803333,0.174803333,0.174803333,0.174803333,0.174803333,0.19700121992,0.21919910684,0.24139699376,0.26359488068000003,0.2857927676,0.27469382414,0.26359488068,0.25249593721999997,0.24139699376,0.2302980503,0.21919910684,0.20810016337999998,0.19700121992,0.18590227646000002,0.174803333,0.174803333,0.174803333,0.174803333,0.174803333,0.174803333
7,1.019649998,1.019649998,1.019649998,1.019649998,1.019649998,1.019649998,1.1393948176,1.2591396372,1.3788844568,1.4986292764,1.6183740960000002,1.5585016862,1.4986292764000002,1.4387568666000001,1.3788844568,1.3190120470000002,1.2591396372,1.1992672274,1.1393948176,1.0795224078,1.019649998,1.019649998,1.019649998,1.019649998,1.019649998,1.019649998
8,2.697120809,2.697120809,2.697120809,2.697120809,2.697120809,2.697120809,3.1422704996,3.5874201901999996,4.0325698808,4.4777195714,4.922869262,4.7002944167,4.4777195714,4.2551447261,4.0325698808,3.8099950355,3.5874201902,3.3648453449,3.1422704996,2.9196956543,2.697120809,2.697120809,2.697120809,2.697120809,2.697120809,2.697120809
9,1.438610664,1.438610664,1.438610664,1.438610664,1.438610664,1.438610664,1.8267594742000002,2.2149082844,2.6030570946,2.9912059048,3.3793547150000003,3.1852803099000004,2.9912059048,2.7971314997000003,2.6030570946000005,2.4089826895,2.2149082844000003,2.0208338793000005,1.8267594742000002,1.6326850691,1.438610664,1.438610664,1.438610664,1.438610664,1.438610664,1.438610664
10,0.620870599,0.620870599,0.620870599,0.620870599,0.620870599,0.620870599,0.77813757596,0.9354045529199999,1.0926715298799998,1.24993850684,1.4072054837999999,1.32857199532,1.24993850684,1.17130501836,1.09267152988,1.0140380414,0.9354045529199999,0.85677106444,0.77813757596,0.69950408748,0.620870599,0.620870599,0.620870599,0.620870599,0.620870599,0.620870599
11,0.42420166600000003,0.42420166600000003,0.42420166600000003,0.42420166600000003,0.42420166600000003,0.42420166600000003,0.50246046698,0.5807192679600001,0.6589780689400001,0.73723686992,0.8154956709000001,0.7763662704100001,0.73723686992,0.69810746943,0.65897806894,0.61984866845,0.5807192679600001,0.54158986747,0.50246046698,0.46333106649,0.42420166600000003,0.42420166600000003,0.42420166600000003,0.42420166600000003,0.42420166600000003,0.42420166600000003
12,1.761230993,1.761230993,1.761230993,1.761230993,1.761230993,1.761230993,2.1414432516,2.5216555102000004,2.9018677688000003,3.2820800274,3.6622922860000005,3.4721861567000003,3.2820800274,3.0919738981000005,2.9018677688000003,2.7117616395,2.5216555102000004,2.3315493809000003,2.1414432516,1.9513371223,1.761230993,1.761230993,1.761230993,1.761230993,1.761230993,1.761230993
13,1.122711058,1.122711058,1.122711058,1.122711058,1.122711058,1.122711058,1.8502833073999998,2.5778555568,3.3054278062,4.0330000556,4.760572305,4.3967861803,4.0330000556000005,3.6692139309000003,3.3054278062,2.9416416815,2.5778555568000003,2.2140694321,1.8502833074000002,1.4864971827000004,1.122711058,1.122711058,1.122711058,1.122711058,1.122711058,1.122711058
14,7.160999775,7.160999775,7.160999775,7.160999775,7.160999775,7.160999775,9.128665585,11.096331395,13.063997205,15.031663015,16.999328825,16.01549592,15.031663015,14.04783011,13.063997205,12.0801643,11.096331395,10.11249849,9.128665585,8.14483268,7.160999775,7.160999775,7.160999775,7.160999775,7.160999775,7.160999775
15,0.0,0.0,0.0,0.0,0.0,0.0,0.0,0.0,0.0,0.0,0.0,0.0,0.0,0.0,0.0,0.0,0.0,0.0,0.0,0.0,0.0,0.0,0.0,0.0,0.0,0.0
16,2.965718716,2.965718716,2.965718716,2.965718716,2.965718716,2.965718716,3.2193293276,3.4729399391999998,3.7265505508,3.9801611624,4.233771774,4.1069664682,3.9801611624,3.8533558566,3.7265505508,3.5997452450000003,3.4729399392,3.3461346334,3.2193293276,3.0925240218,2.965718716,2.965718716,2.965718716,2.965718716,2.965718716,2.965718716
17,3.847600499,3.847600499,3.847600499,3.847600499,3.847600499,3.847600499,4.5386550276,5.2297095561999996,5.9207640848,6.6118186134000005,7.302873142,6.9573458777,6.6118186134000005,6.2662913491,5.9207640848,5.5752368205,5.2297095561999996,4.8841822919,4.5386550276,4.1931277633,3.847600499,3.847600499,3.847600499,3.847600499,3.847600499,3.847600499
18,3.50384077,3.50384077,3.50384077,3.50384077,3.50384077,3.50384077,4.2740015458,5.0441623216,5.814323097400001,6.584483873200001,7.354644649000001,6.9695642611,6.584483873200001,6.1994034853,5.814323097400001,5.4292427095,5.0441623216,4.6590819337,4.2740015458,3.8889211579,3.50384077,3.50384077,3.50384077,3.50384077,3.50384077,3.50384077
19,4.8198117510000005,4.8198117510000005,4.8198117510000005,4.8198117510000005,4.8198117510000005,4.8198117510000005,5.376848206200001,5.9338846614000005,6.490921116600001,7.047957571800001,7.604994027000001,7.326475799400001,7.0479575718000005,6.7694393442,6.490921116600001,6.212402889000001,5.9338846614000005,5.6553664338,5.3768482062,5.098329978600001,4.8198117510000005,4.8198117510000005,4.8198117510000005,4.8198117510000005,4.8198117510000005,4.8198117510000005
